#include "sv_clanarena.qh"

float autocvar_g_ca_damage2score_multiplier;
bool autocvar_g_ca_spectate_enemies;

void CA_count_alive_players()
{
	total_players = 0;
	for (int i = 1; i <= NUM_TEAMS; ++i)
	{
		Team_SetNumberOfAlivePlayers(Team_GetTeamFromIndex(i), 0);
	}
	FOREACH_CLIENT(IS_PLAYER(it) && Entity_HasValidTeam(it),
	{
		++total_players;
		if (IS_DEAD(it))
		{
			continue;
		}
		entity team_ = Entity_GetTeam(it);
		int num_alive = Team_GetNumberOfAlivePlayers(team_);
		++num_alive;
		Team_SetNumberOfAlivePlayers(team_, num_alive);
	});
	FOREACH_CLIENT(IS_REAL_CLIENT(it),
	{
		STAT(REDALIVE, it) = Team_GetNumberOfAlivePlayers(Team_GetTeamFromIndex(
			1));
		STAT(BLUEALIVE, it) = Team_GetNumberOfAlivePlayers(
			Team_GetTeamFromIndex(2));
		STAT(YELLOWALIVE, it) = Team_GetNumberOfAlivePlayers(
			Team_GetTeamFromIndex(3));
		STAT(PINKALIVE, it) = Team_GetNumberOfAlivePlayers(
			Team_GetTeamFromIndex(4));
	});
}

int CA_GetWinnerTeam()
{
	int winner_team = 0;
	if (Team_GetNumberOfAlivePlayers(Team_GetTeamFromIndex(1)) >= 1)
	{
		winner_team = NUM_TEAM_1;
	}
	for (int i = 2; i <= NUM_TEAMS; ++i)
	{
		if (Team_GetNumberOfAlivePlayers(Team_GetTeamFromIndex(i)) >= 1)
		{
			if (winner_team != 0)
			{
				return 0;
			}
			winner_team = Team_IndexToTeam(i);
		}
	}
	if (winner_team)
	{
		return winner_team;
	}
	return -1; // no player left
}

void nades_Clear(entity player);

#define CA_ALIVE_TEAMS_OK() (Team_GetNumberOfAliveTeams() == NumTeams(ca_teams))
float CA_CheckWinner()
{
	if(round_handler_GetEndTime() > 0 && round_handler_GetEndTime() - time <= 0)
	{
		Send_Notification(NOTIF_ALL, NULL, MSG_CENTER, CENTER_ROUND_OVER);
		Send_Notification(NOTIF_ALL, NULL, MSG_INFO, INFO_ROUND_OVER);
		FOREACH_CLIENT(IS_PLAYER(it), { nades_Clear(it); });

		allowed_to_spawn = false;
		game_stopped = true;
		round_handler_Init(5, autocvar_g_ca_warmup, autocvar_g_ca_round_timelimit);
		return 1;
	}

	CA_count_alive_players();
	if (Team_GetNumberOfAliveTeams() > 1)
	{
		return 0;
	}

	int winner_team = CA_GetWinnerTeam();
	if(winner_team > 0)
	{
		Send_Notification(NOTIF_ALL, NULL, MSG_CENTER, APP_TEAM_NUM(winner_team, CENTER_ROUND_TEAM_WIN));
		Send_Notification(NOTIF_ALL, NULL, MSG_INFO, APP_TEAM_NUM(winner_team, INFO_ROUND_TEAM_WIN));
		TeamScore_AddToTeam(winner_team, ST_CA_ROUNDS, +1);
	}
	else if(winner_team == -1)
	{
		Send_Notification(NOTIF_ALL, NULL, MSG_CENTER, CENTER_ROUND_TIED);
		Send_Notification(NOTIF_ALL, NULL, MSG_INFO, INFO_ROUND_TIED);
	}

	allowed_to_spawn = false;
	game_stopped = true;
	round_handler_Init(5, autocvar_g_ca_warmup, autocvar_g_ca_round_timelimit);

	FOREACH_CLIENT(IS_PLAYER(it), { nades_Clear(it); });

	return 1;
}

void CA_RoundStart()
{
	allowed_to_spawn = boolean(warmup_stage);
}

bool CA_CheckTeams()
{
	static int prev_missing_teams_mask;
	allowed_to_spawn = true;
	CA_count_alive_players();
	if(CA_ALIVE_TEAMS_OK())
	{
		if(prev_missing_teams_mask > 0)
			Kill_Notification(NOTIF_ALL, NULL, MSG_CENTER, CPID_MISSING_TEAMS);
		prev_missing_teams_mask = -1;
		return true;
	}
	if(total_players == 0)
	{
		if(prev_missing_teams_mask > 0)
			Kill_Notification(NOTIF_ALL, NULL, MSG_CENTER, CPID_MISSING_TEAMS);
		prev_missing_teams_mask = -1;
		return false;
	}
	int missing_teams_mask = 0;
	for (int i = 1; i <= NUM_TEAMS; ++i)
	{
		if ((ca_teams & Team_IndexToBit(i)) &&
			(Team_GetNumberOfAlivePlayers(Team_GetTeamFromIndex(i)) == 0))
		{
			missing_teams_mask |= Team_IndexToBit(i);
		}
	}
	if(prev_missing_teams_mask != missing_teams_mask)
	{
		Send_Notification(NOTIF_ALL, NULL, MSG_CENTER, CENTER_MISSING_TEAMS, missing_teams_mask);
		prev_missing_teams_mask = missing_teams_mask;
	}
	return false;
}

bool ca_isEliminated(entity e)
{
	if(e.caplayer == 1 && (IS_DEAD(e) || e.frags == FRAGS_LMS_LOSER))
		return true;
	if(e.caplayer == 0.5)
		return true;
	return false;
}

/** Returns next available player to spectate if g_ca_spectate_enemies == 0 */
entity CA_SpectateNext(entity player, entity start)
{
	if (SAME_TEAM(start, player)) return start;
	// continue from current player
	for (entity e = start; (e = find(e, classname, STR_PLAYER)); )
	{
		if (SAME_TEAM(player, e)) return e;
	}
	// restart from begining
	for (entity e = NULL; (e = find(e, classname, STR_PLAYER)); )
	{
		if (SAME_TEAM(player, e)) return e;
	}
	return start;
}


MUTATOR_HOOKFUNCTION(ca, PlayerSpawn)
{
	entity player = M_ARGV(0, entity);

	player.caplayer = 1;
	if (!warmup_stage)
		eliminatedPlayers.SendFlags |= 1;
}

MUTATOR_HOOKFUNCTION(ca, ForbidSpawn)
{
	entity player = M_ARGV(0, entity);

	// spectators / observers that weren't playing can join; they are
	// immediately forced to observe in the PutClientInServer hook
	// this way they are put in a team and can play in the next round
	if (!allowed_to_spawn && player.caplayer)
		return true;
	return false;
}

MUTATOR_HOOKFUNCTION(ca, PutClientInServer)
{
	entity player = M_ARGV(0, entity);

	if (!allowed_to_spawn && IS_PLAYER(player)) // this is true even when player is trying to join
	{
		TRANSMUTE(Observer, player);
		if (CS(player).jointime != time && !player.caplayer) // not when connecting
		{
			player.caplayer = 0.5;
			Send_Notification(NOTIF_ONE_ONLY, player, MSG_INFO, INFO_CA_JOIN_LATE);
		}
	}
}

MUTATOR_HOOKFUNCTION(ca, reset_map_players)
{
	FOREACH_CLIENT(true, {
		CS(it).killcount = 0;
		if (!it.caplayer && IS_BOT_CLIENT(it))
		{
			it.team = -1;
			it.caplayer = 1;
		}
		if (it.caplayer)
		{
			TRANSMUTE(Player, it);
			it.caplayer = 1;
			PutClientInServer(it);
		}
	});
	bot_relinkplayerlist();
	return true;
}

MUTATOR_HOOKFUNCTION(ca, ClientConnect)
{
	entity player = M_ARGV(0, entity);

	TRANSMUTE(Observer, player);
	return true;
}

MUTATOR_HOOKFUNCTION(ca, reset_map_global)
{
	allowed_to_spawn = true;
	return true;
}

MUTATOR_HOOKFUNCTION(ca, TeamBalance_CheckAllowedTeams, CBC_ORDER_EXCLUSIVE)
{
	M_ARGV(0, float) = ca_teams;
	return true;
}

entity ca_LastPlayerForTeam(entity this)
{
	entity last_pl = NULL;
	FOREACH_CLIENT(IS_PLAYER(it) && it != this, {
		if (!IS_DEAD(it))
		if (SAME_TEAM(this, it))
		if (!last_pl)
			last_pl = it;
		else
			return NULL;
	});
	return last_pl;
}

void ca_LastPlayerForTeam_Notify(entity this)
{
	if (!warmup_stage && round_handler_IsActive() && round_handler_IsRoundStarted())
	{
		entity pl = ca_LastPlayerForTeam(this);
		if (pl)
			Send_Notification(NOTIF_ONE, pl, MSG_CENTER, CENTER_ALONE);
	}
}

MUTATOR_HOOKFUNCTION(ca, PlayerDies)
{
	entity frag_target = M_ARGV(2, entity);

	ca_LastPlayerForTeam_Notify(frag_target);
	if (!allowed_to_spawn)
	{
		frag_target.respawn_flags = RESPAWN_SILENT;
		// prevent unwanted sudden rejoin as spectator and movement of spectator camera
		frag_target.respawn_time = time + 2;
	}
	frag_target.respawn_flags |= RESPAWN_FORCE;
	if (!warmup_stage)
	{
		eliminatedPlayers.SendFlags |= 1;
		if (IS_BOT_CLIENT(frag_target))
			bot_clear(frag_target);
	}
	return true;
}

MUTATOR_HOOKFUNCTION(ca, ClientDisconnect)
{
	entity player = M_ARGV(0, entity);

	if (IS_PLAYER(player) && !IS_DEAD(player))
		ca_LastPlayerForTeam_Notify(player);
	return true;
}

MUTATOR_HOOKFUNCTION(ca, MakePlayerObserver)
{
	entity player = M_ARGV(0, entity);

	if (IS_PLAYER(player) && !IS_DEAD(player))
		ca_LastPlayerForTeam_Notify(player);
	if (player.killindicator_teamchange == -2) // player wants to spectate
		player.caplayer = 0;
	if (player.caplayer)
		player.frags = FRAGS_LMS_LOSER;
	if (!warmup_stage)
		eliminatedPlayers.SendFlags |= 1;
	if (!player.caplayer)
		return false;  // allow team reset
	return true;  // prevent team reset
}

MUTATOR_HOOKFUNCTION(ca, ForbidThrowCurrentWeapon)
{
	return true;
}

MUTATOR_HOOKFUNCTION(ca, GiveFragsForKill, CBC_ORDER_FIRST)
{
	M_ARGV(2, float) = 0; // score will be given to the winner team when the round ends
	return true;
}

MUTATOR_HOOKFUNCTION(ca, SetStartItems)
{
	start_items       &= ~IT_UNLIMITED_AMMO;
	start_health       = warmup_start_health       = cvar("g_lms_start_health");
	start_armorvalue   = warmup_start_armorvalue   = cvar("g_lms_start_armor");
	start_ammo_shells  = warmup_start_ammo_shells  = cvar("g_lms_start_ammo_shells");
	start_ammo_nails   = warmup_start_ammo_nails   = cvar("g_lms_start_ammo_nails");
	start_ammo_rockets = warmup_start_ammo_rockets = cvar("g_lms_start_ammo_rockets");
	start_ammo_cells   = warmup_start_ammo_cells   = cvar("g_lms_start_ammo_cells");
	start_ammo_plasma  = warmup_start_ammo_plasma  = cvar("g_lms_start_ammo_plasma");
	start_ammo_fuel    = warmup_start_ammo_fuel    = cvar("g_lms_start_ammo_fuel");
}

MUTATOR_HOOKFUNCTION(ca, Damage_Calculate)
{
	entity frag_attacker = M_ARGV(1, entity);
	entity frag_target = M_ARGV(2, entity);
	float frag_deathtype = M_ARGV(3, float);
	float frag_damage = M_ARGV(4, float);
	float frag_mirrordamage = M_ARGV(5, float);

	if (IS_PLAYER(frag_target))
	if (!IS_DEAD(frag_target))
	if (frag_target == frag_attacker || SAME_TEAM(frag_target, frag_attacker) || frag_deathtype == DEATH_FALL.m_id)
		frag_damage = 0;

	frag_mirrordamage = 0;

	M_ARGV(4, float) = frag_damage;
	M_ARGV(5, float) = frag_mirrordamage;
}

MUTATOR_HOOKFUNCTION(ca, FilterItem)
{
	entity item = M_ARGV(0, entity);

	if (autocvar_g_powerups <= 0)
	if (item.flags & FL_POWERUP)
		return true;

	if (autocvar_g_pickup_items <= 0)
		return true;
}

MUTATOR_HOOKFUNCTION(ca, PlayerDamage_SplitHealthArmor)
{
	entity frag_attacker = M_ARGV(1, entity);
	entity frag_target = M_ARGV(2, entity);
	float frag_damage = M_ARGV(7, float);
	float damage_take = bound(0, M_ARGV(4, float), GetResourceAmount(frag_target, RESOURCE_HEALTH));
	float damage_save = bound(0, M_ARGV(5, float), GetResourceAmount(frag_target, RESOURCE_ARMOR));

	float excess = max(0, frag_damage - damage_take - damage_save);

	if (frag_target != frag_attacker && IS_PLAYER(frag_attacker) && DIFF_TEAM(frag_target, frag_attacker))
		GameRules_scoring_add_team(frag_attacker, SCORE, (frag_damage - excess) * autocvar_g_ca_damage2score_multiplier);
}

MUTATOR_HOOKFUNCTION(ca, CalculateRespawnTime)
{
	// no respawn calculations needed, player is forced to spectate anyway
	return true;
}

MUTATOR_HOOKFUNCTION(ca, PlayerRegen)
{
	// no regeneration in CA
	return true;
}

MUTATOR_HOOKFUNCTION(ca, Scores_CountFragsRemaining)
{
	// announce remaining frags
	return true;
}

MUTATOR_HOOKFUNCTION(ca, SpectateSet)
{
	entity client = M_ARGV(0, entity);
	entity targ = M_ARGV(1, entity);

	if (!autocvar_g_ca_spectate_enemies && client.caplayer)
	if (DIFF_TEAM(targ, client))
		return true;
}

MUTATOR_HOOKFUNCTION(ca, SpectateNext)
{
	entity client = M_ARGV(0, entity);

	if (!autocvar_g_ca_spectate_enemies && client.caplayer)
	{
		entity targ = M_ARGV(1, entity);
		M_ARGV(1, entity) = CA_SpectateNext(client, targ);
		return true;
	}
}

MUTATOR_HOOKFUNCTION(ca, SpectatePrev)
{
	entity client = M_ARGV(0, entity);
	entity targ = M_ARGV(1, entity);
	entity first = M_ARGV(2, entity);

	if (!autocvar_g_ca_spectate_enemies && client.caplayer)
	{
		do { targ = targ.chain; }
		while(targ && DIFF_TEAM(targ, client));

		if (!targ)
		{
			for (targ = first; targ && DIFF_TEAM(targ, client); targ = targ.chain);

			if (targ == client.enemy)
				return MUT_SPECPREV_RETURN;
		}
	}

	M_ARGV(1, entity) = targ;

	return MUT_SPECPREV_FOUND;
}

MUTATOR_HOOKFUNCTION(ca, Bot_FixCount, CBC_ORDER_EXCLUSIVE)
{
	FOREACH_CLIENT(IS_REAL_CLIENT(it), {
		if (IS_PLAYER(it) || it.caplayer == 1)
			++M_ARGV(0, int);
		++M_ARGV(1, int);
	});
	return true;
}

MUTATOR_HOOKFUNCTION(ca, ClientCommand_Spectate)
{
	entity player = M_ARGV(0, entity);

	if (player.caplayer)
	{
		// they're going to spec, we can do other checks
		if (autocvar_sv_spectate && (IS_SPEC(player) || IS_OBSERVER(player)))
			Send_Notification(NOTIF_ONE_ONLY, player, MSG_INFO, INFO_CA_LEAVE);
		return MUT_SPECCMD_FORCE;
	}

	return MUT_SPECCMD_CONTINUE;
}

MUTATOR_HOOKFUNCTION(ca, WantWeapon)
{
	M_ARGV(2, bool) = true; // all weapons
}

MUTATOR_HOOKFUNCTION(ca, HideTeamNagger)
{
	return true; // doesn't work well with the whole spectator as player thing
}

MUTATOR_HOOKFUNCTION(ca, GetPlayerStatus)
{
	entity player = M_ARGV(0, entity);

	return player.caplayer == 1;
}

MUTATOR_HOOKFUNCTION(ca, SetWeaponArena)
{
	// most weapons arena
	if (M_ARGV(0, string) == "0" || M_ARGV(0, string) == "") M_ARGV(0, string) = "most";
}
